<?xml version="1.0" encoding="UTF-8"?><svg version="1.1" id="Layer_1" xmlns="http://www.w3.org/2000/svg" xmlns:xlink="http://www.w3.org/1999/xlink" x="0px" y="0px" viewBox="0 0 1112.048 1213.614" style="enable-background:new 0 0 1112.048 1213.614;" xml:space="preserve" width="1113px" height="1214px">
<g>
	<path style="fill:#00AEE0;" d="M1100.176,665.764c-22.05,31.16-66.24,37.42-103.94,31.44c-37.7-5.98-73.91-21.27-112.06-22.61
		c-78.26-2.75-148.76,55.85-181.81,126.85c-33.05,71.01-42,174.98-45.46,253.22c-1.43,32.25-5.26,65.98-10.27,95.98
		c-1.51,9.1-13.31,51.03-20.7,59.24c-14.45,2.45-30.21,3.73-46.52,3.73c-16.58,0-32.57-1.32-47.21-3.85
		c-10.02-14.14-13.979-34.289-21.01-51.89c-4.003-10.02-11.96-52.23-12.77-74.07c-1.9-51.08-5.76-102.22-16.71-152.26
		c-15.91-72.72-47.75-143.89-101.94-194.92c-54.2-51.04-133-79.12-205.22-61.09c-31.82,7.95-64.72,24.34-95.74,13.71
		c-37.31-12.79-51.87-63.15-35.01-98.8c16.85-35.66,56.4-56.2,95.56-60.92c39.15-4.72,78.56,3.8,117.08,12.27
		c-61.56-84.94-69.94-205.28-20.75-297.93c12.01-22.62,28.02-44.38,50.9-55.88c22.88-11.5,53.79-9.93,70.86,9.15
		c12.38,13.84,15.32,33.39,20.74,51.15c5.42,17.77,16.34,36.68,34.61,40.02c17.13,3.12,33.9-9.47,41.84-24.97
		c7.94-15.49,9.24-33.39,11.37-50.68c6.34-51.29,21.96-102.62,53.56-143.52c31.6-40.89,80.87-70.08,132.54-69.11
		c51.67,0.97,103.18,36.55,114.63,86.95c18.03,79.37-59.41,148.45-72.25,228.82c-3.81,23.87,0.49,52.42,21.21,64.88
		c18.78,11.3,43.33,4.65,62.31-6.34c18.97-10.99,35.93-26.11,56.87-32.61c30.68-9.51,66.86,3.13,84.94,29.68
		c18.07,26.55,16.57,64.85-3.53,89.9c-15.78,19.66-43.2,36.7-38.67,61.5c3.23,17.62,22.78,28.01,40.69,28.35
		c17.92,0.34,35.05-6.54,52.47-10.73c37.88-9.12,80.9-4.42,110.74,20.63C1111.366,586.104,1122.686,633.964,1100.176,665.764z"/>
	<path style="fill:#00AEE0;" d="M831.27,801.859c12.682-5.64,26.612-10.495,42.753-10.605c16.141-0.11,34.965,5.364,46.779,16.366
		c15.388,14.329,14.27,33.56,3.836,45.72c-10.434,12.159-28.077,19.072-44.527,26.491c-52.441,23.649-93.979,56.661-134.415,96.841
		c-22.478,22.326-32.435-23.069-30.2-37.529c2.912-18.83,11.265-37.618,20.574-54.137
		C755.862,849.884,788.644,820.816,831.27,801.859z"/>
	<path style="fill:#00AEE0;" d="M1017.871,416.579c5.544-13.228,9.043-27.439,16.671-39.585
		c7.628-12.146,20.949-22.231,35.196-20.569c14.186,1.655,25.073,14.975,27.31,29.081c2.237,14.106-2.682,28.497-9.952,40.79
		c-20.363,34.433-60.638,56.065-100.59,54.029c-4.747-0.242-10.014-1.075-12.938-4.829c-9.441-12.143,11.173-20.918,18.186-26.143
		C1003.524,440.582,1012.136,430.261,1017.871,416.579z"/>
	<path style="fill:#00AEE0;" d="M84.6,428.482c-16.728-2.228-33.943-1.831-50.084-6.759c-16.14-4.928-31.691-16.955-34.185-33.645
		c-2.484-16.619,9.296-33.08,24.628-39.959c15.332-6.879,33.189-5.719,49.386-1.243c45.367,12.536,82.322,51.623,92.296,97.622
		c1.185,5.465,1.859,11.704-1.506,16.179c-10.887,14.457-27.193-6.256-35.284-12.614C116.273,437.394,101.903,430.787,84.6,428.482z
		"/>
	<path style="fill:#FFFFFF;" d="M734.592,665.286c-0.338-0.174-0.042-1.785,1.335-4.526c1.392-2.714,3.99-6.497,8.092-10.589
		c4.063-4.119,9.658-8.432,15.939-13.197c3.12-2.397,6.378-4.977,9.533-7.895c3.125-2.931,6.173-6.205,8.525-10.014
		c1.167-1.877,2.235-3.973,2.923-5.979c0.693-2.074,1.101-4.322,1.203-6.612c0.214-4.556-0.907-9.43-3.585-12.823
		c-1.334-1.709-2.983-2.947-4.996-3.822c-2.036-0.831-4.375-1.23-7.006-1.193c-2.62,0.016-5.469,0.415-8.461,1.004
		c-2.987,0.575-6.135,1.343-9.46,2.058c-3.347,0.699-6.877,1.405-10.824,1.595c-1.973,0.079-4.033,0.073-6.204-0.275
		c-2.158-0.332-4.397-0.955-6.54-1.964c-4.282-2.118-7.813-5.442-10.04-9.841c-1.091-2.174-1.773-4.497-2.133-6.743
		c-0.363-2.253-0.427-4.436-0.348-6.524c0.173-4.18,0.881-8.024,1.606-11.7c0.732-3.679,1.514-7.206,2.038-10.614
		c0.535-3.399,0.79-6.695,0.461-9.606c-0.136-1.437-0.479-2.839-0.953-4.205c-0.467-1.369-1.093-2.7-1.89-3.962
		c-3.121-5.1-8.526-9.035-14.463-11.272c-5.949-2.257-12.481-2.909-18.375-1.806c-0.742,0.121-1.459,0.311-2.18,0.487
		c-0.733,0.207-1.488,0.474-2.23,0.702l-1.117,0.355l-1.085,0.446c-0.72,0.305-1.454,0.566-2.161,0.898
		c-2.83,1.326-5.523,2.925-8.075,4.73c-2.504,1.881-4.947,3.838-7.141,6.082c-0.571,0.532-1.116,1.092-1.642,1.673
		c-0.534,0.571-1.067,1.141-1.599,1.709c-0.996,1.209-2.06,2.339-2.995,3.589c-7.796,9.752-13.058,20.76-17.839,31.402
		c-4.755,10.646-9.099,20.912-14.105,29.914c-1.252,2.249-2.53,4.421-3.841,6.506c-1.335,2.068-2.627,4.078-4.117,6.023
		c-2.935,3.829-6.121,7.053-9.382,9.733c-6.509,5.363-13.378,8.538-19.382,9.532c-2.998,0.499-5.747,0.455-8.054,0.079
		c-2.315-0.374-4.175-1.082-5.577-1.782c-2.794-1.473-3.827-2.791-3.628-3.096c0.237-0.392,1.715,0.209,4.447,0.815
		c2.721,0.582,6.824,0.932,11.768-0.578c4.92-1.484,10.588-4.788,15.964-9.998c2.686-2.595,5.298-5.662,7.626-9.157
		c1.146-1.714,2.248-3.682,3.377-5.686c1.106-2.018,2.188-4.124,3.255-6.31c4.268-8.756,8.043-18.894,12.481-29.91
		c2.23-5.508,4.66-11.217,7.594-17.034c2.931-5.824,6.427-11.637,10.656-17.239c1.02-1.423,2.204-2.758,3.314-4.151
		c0.598-0.669,1.197-1.339,1.799-2.011c0.592-0.679,1.212-1.342,1.867-1.982c2.502-2.651,5.365-5.068,8.364-7.384
		c3.064-2.253,6.373-4.296,9.927-6.015c0.887-0.43,1.815-0.789,2.727-1.184l1.377-0.578l1.422-0.481
		c0.958-0.313,1.889-0.647,2.877-0.936c1.016-0.269,2.036-0.54,3.068-0.728c8.26-1.619,16.856-0.778,24.828,2.176
		c1.993,0.749,3.944,1.643,5.85,2.658c1.896,1.04,3.734,2.222,5.499,3.545c3.499,2.681,6.702,5.981,9.139,9.96
		c1.234,1.971,2.247,4.105,3.007,6.326c0.767,2.215,1.308,4.521,1.534,6.839c0.486,4.598,0.044,8.839-0.581,12.771
		c-0.633,3.94-1.484,7.619-2.206,11.117c-0.729,3.496-1.334,6.825-1.486,9.845c-0.161,3.028,0.188,5.627,1.149,7.596
		c0.914,1.956,2.722,3.699,4.619,4.677c1.958,0.963,4.441,1.382,7.296,1.282c2.833-0.068,5.919-0.58,9.055-1.168
		c3.16-0.601,6.381-1.308,9.742-1.866c3.348-0.562,6.835-0.99,10.491-0.909c3.626,0.059,7.506,0.744,11.044,2.356
		c0.873,0.428,1.745,0.832,2.565,1.396l1.235,0.801c0.411,0.264,0.765,0.606,1.145,0.908l1.109,0.943
		c0.348,0.332,0.665,0.692,0.994,1.039l0.962,1.057l0.834,1.131c2.19,3.035,3.523,6.392,4.253,9.691
		c0.728,3.31,0.871,6.592,0.59,9.746c-0.288,3.155-0.995,6.195-2.11,9.041c-1.171,2.897-2.601,5.31-4.193,7.602
		c-3.183,4.553-6.946,8.084-10.592,11.082c-3.676,2.973-7.291,5.419-10.665,7.607c-6.763,4.321-12.427,7.857-16.719,11.214
		C738.477,660.299,735.426,665.739,734.592,665.286z"/>
	<path style="fill:#FFFFFF;" d="M578.625,464.03c-0.223,0.349-1.138,0.193-2.75-0.488c-1.58-0.712-3.755-2.121-6.144-4.442
		c-2.393-2.318-4.814-5.644-6.98-9.764c-2.182-4.121-4.016-9.036-5.672-14.431c-0.841-2.702-1.62-5.516-2.429-8.417
		c-0.402-1.436-0.813-2.901-1.231-4.393c-0.105-0.37-0.21-0.742-0.315-1.115l-0.321-1.057c-0.22-0.706-0.45-1.417-0.698-2.127
		c-1.975-5.666-4.822-11.554-8.803-16.551c-1.997-2.467-4.288-4.68-6.81-6.255c-2.524-1.581-5.226-2.476-8.05-2.538
		c-0.701-0.019-1.438,0.014-2.138,0.104l-1.041,0.156c-0.346,0.062-0.685,0.179-1.031,0.257c-1.365,0.394-2.735,0.928-4.026,1.76
		c-2.609,1.579-4.988,3.99-6.878,6.849c-0.923,1.443-1.77,2.95-2.416,4.533c-0.647,1.604-1.167,3.128-1.547,4.884
		c-0.776,3.435-1.074,7.021-1.059,10.657c0.035,7.279,1.219,14.702,2.149,21.98c1.896,14.471,3.438,27.528,4.562,38.519
		c2.247,21.983,2.816,35.705,1.175,35.955s-5.182-13.019-9.58-34.675c-2.199-10.828-4.612-23.752-7.109-38.132
		c-1.2-7.14-2.737-14.858-2.975-23.48c-0.103-4.297,0.172-8.824,1.158-13.404c0.463-2.259,1.229-4.676,2.142-6.922
		c0.922-2.271,2.112-4.441,3.464-6.535c2.75-4.149,6.322-7.844,10.758-10.484c2.187-1.349,4.643-2.336,7.163-3
		c0.638-0.147,1.268-0.321,1.911-0.429l1.94-0.26c1.287-0.133,2.55-0.164,3.831-0.104c5.133,0.206,10.03,2.078,13.87,4.69
		c3.881,2.614,6.879,5.838,9.332,9.135c4.839,6.664,7.677,13.669,9.541,20.365c0.232,0.839,0.441,1.676,0.637,2.508
		c0.094,0.417,0.189,0.832,0.282,1.245c0.081,0.394,0.162,0.786,0.242,1.177c0.308,1.553,0.61,3.076,0.906,4.57
		c0.572,2.962,1.087,5.782,1.631,8.422c1.068,5.294,2.208,9.945,3.592,13.841c1.373,3.896,2.905,7.085,4.459,9.518
		C576.455,461.035,579.15,463.235,578.625,464.03z"/>
	<path style="fill:#FFFFFF;" d="M425.247,532.252c0.125,0.159-0.157,0.636-0.901,1.397c-0.766,0.723-2.03,1.715-3.963,2.57
		c-0.958,0.451-2.095,0.791-3.372,1.095c-1.283,0.259-2.716,0.437-4.274,0.447c-3.108-0.006-6.693-0.656-10.401-2.174
		c-3.706-1.514-7.549-3.858-11.149-7.173c-1.802-1.654-3.521-3.575-5.087-5.774c-0.405-0.539-0.757-1.129-1.14-1.704
		c-0.337-0.574-0.677-1.154-1.02-1.738c-0.709-1.162-1.287-2.402-1.935-3.643c-1.204-2.512-2.296-5.157-3.306-7.9
		c-0.987-2.743-1.908-5.576-2.807-8.467c-1.803-5.763-3.515-11.789-5.992-17.579c-1.253-2.946-2.635-5.568-4.464-8.141
		c-1.809-2.553-3.959-4.961-6.403-7.045c-2.439-2.079-5.19-3.836-8.094-4.935c-2.902-1.104-5.923-1.505-8.771-1.004
		c-2.853,0.496-5.612,1.869-7.787,3.961c-2.175,2.131-3.829,5.075-4.964,8.411c-1.147,3.338-1.707,7.093-1.818,10.929l-0.035,1.444
		l0.038,1.454c0.005,0.971,0.097,1.944,0.174,2.919c0.057,0.978,0.237,1.943,0.344,2.919c0.183,1.007,0.367,2.017,0.552,3.03
		l0.278,1.524c0.102,0.507,0.241,1.008,0.359,1.514c0.245,1.009,0.49,2.022,0.736,3.037c0.3,1.002,0.601,2.006,0.903,3.014
		l0.455,1.513l0.536,1.492c0.36,0.995,0.722,1.993,1.084,2.994c0.417,0.98,0.835,1.963,1.254,2.948l0.633,1.478l0.711,1.448
		c0.48,0.964,0.933,1.945,1.435,2.903c2.057,3.811,4.344,7.551,6.954,11.116c0.626,0.91,1.352,1.748,2.024,2.63
		c0.681,0.875,1.36,1.756,2.113,2.577c0.732,0.838,1.467,1.679,2.203,2.521c0.78,0.801,1.561,1.603,2.344,2.407
		c3.187,3.154,6.574,6.178,10.29,8.805l1.373,1.015l1.432,0.933c0.969,0.623,1.88,1.251,2.898,1.878
		c2.045,1.25,4.278,2.568,6.561,4.165c2.27,1.593,4.653,3.499,6.77,6.117c1.061,1.3,2,2.841,2.762,4.497
		c0.732,1.689,1.232,3.507,1.464,5.343c0.214,1.87,0.13,3.857-0.305,5.772c-0.43,1.917-1.208,3.737-2.196,5.328
		c-2.003,3.192-4.694,5.437-7.436,7.138c-2.769,1.676-5.651,2.82-8.573,3.605c-2.925,0.776-5.899,1.191-8.915,1.248
		c-1.509,0.022-3.03-0.055-4.558-0.227c-0.767-0.102-1.531-0.206-2.301-0.366l-0.575-0.112l-0.497-0.117l-0.993-0.236
		c-2.64-0.633-5.15-1.382-7.546-2.131c-4.806-1.49-9.287-2.992-13.494-3.743c-4.219-0.796-8.01-0.729-11.318,0.412
		c-1.58,0.612-3.071,1.358-4.381,2.478c-1.288,1.127-2.502,2.414-3.456,3.959c-1.926,3.056-3.133,6.763-3.388,10.486
		c-0.117,0.931-0.061,1.858-0.075,2.785c0.009,0.462,0.078,0.916,0.109,1.375c0.031,0.459,0.07,0.916,0.169,1.357l0.231,1.339
		l0.354,1.291c0.095,0.427,0.247,0.867,0.42,1.31c0.167,0.439,0.308,0.887,0.489,1.321c1.457,3.469,3.561,6.693,6.184,9.534
		c2.578,2.874,5.663,5.34,8.906,7.514c3.281,2.16,6.733,3.937,10.348,5.479c7.251,3.062,14.895,5.155,22.446,7.243
		c3.779,1.044,7.543,2.093,11.246,3.246c1.851,0.576,3.668,1.233,5.475,1.839c0.901,0.311,1.798,0.62,2.691,0.928
		c0.879,0.344,1.754,0.685,2.625,1.025c6.996,2.636,13.466,5.75,19.494,8.947c12.013,6.5,22.138,13.635,30.321,20.674
		c8.2,7.025,14.623,13.76,19.428,19.6c1.24,1.425,2.286,2.88,3.326,4.191c1.018,1.33,1.996,2.548,2.801,3.763
		c1.635,2.407,3.071,4.393,4.048,6.13c2.006,3.435,2.882,5.336,2.541,5.572c-0.341,0.236-1.884-1.202-4.484-4.123
		c-1.274-1.48-2.99-3.199-4.878-5.321c-0.932-1.072-2.032-2.145-3.163-3.325c-1.153-1.161-2.306-2.461-3.646-3.728
		c-5.201-5.208-11.892-11.239-20.18-17.513c-8.271-6.29-18.302-12.628-29.987-18.349c-5.864-2.808-12.112-5.538-18.822-7.808
		c-0.834-0.295-1.672-0.591-2.515-0.889c-0.854-0.263-1.712-0.527-2.574-0.793c-1.73-0.517-3.455-1.084-5.231-1.578
		c-3.551-0.988-7.238-1.902-11.042-2.841c-7.599-1.886-15.706-3.855-23.936-7.107c-8.236-3.293-16.526-8.03-23.356-15.232
		c-3.414-3.578-6.371-7.856-8.475-12.688c-0.261-0.603-0.481-1.228-0.721-1.844c-0.242-0.611-0.468-1.239-0.646-1.915l-0.565-1.992
		l-0.391-2.022c-0.146-0.675-0.223-1.355-0.285-2.037c-0.062-0.682-0.156-1.365-0.183-2.049c-0.022-1.367-0.086-2.743,0.046-4.11
		c0.332-5.475,1.955-10.951,4.991-15.891c1.51-2.475,3.498-4.739,5.783-6.729c2.302-1.99,5.085-3.513,7.975-4.602
		c2.865-1.048,5.896-1.524,8.836-1.66c2.963-0.146,5.782,0.199,8.491,0.65c5.412,0.95,10.281,2.606,14.938,4.014
		c2.333,0.72,4.594,1.379,6.807,1.901l0.828,0.195l0.414,0.098l0.345,0.063c0.453,0.097,0.929,0.155,1.402,0.221
		c0.96,0.102,1.946,0.153,2.948,0.138c3.995-0.073,8.245-1.17,11.424-3.107c1.567-0.966,2.819-2.122,3.504-3.234
		c0.676-1.126,0.887-2.105,0.777-3.356c-0.095-0.656-0.263-1.272-0.514-1.886c-0.3-0.607-0.636-1.234-1.157-1.867
		c-1.015-1.272-2.507-2.569-4.284-3.813c-1.77-1.253-3.779-2.465-5.922-3.786c-1.072-0.667-2.183-1.429-3.268-2.139l-1.633-1.084
		l-1.567-1.167c-4.23-3.039-8.069-6.505-11.659-10.123c-0.881-0.922-1.76-1.842-2.636-2.76c-0.827-0.962-1.651-1.922-2.474-2.88
		c-0.841-0.943-1.604-1.945-2.366-2.943c-0.753-1.005-1.557-1.968-2.259-3.003c-2.911-4.066-5.452-8.322-7.717-12.662
		c-0.554-1.091-1.057-2.205-1.583-3.303l-0.778-1.649l-0.696-1.681c-0.457-1.122-0.913-2.24-1.367-3.355
		c-0.395-1.139-0.788-2.274-1.181-3.406l-0.578-1.698l-0.493-1.721c-0.323-1.147-0.662-2.286-0.965-3.431
		c-0.261-1.156-0.521-2.309-0.781-3.459c-0.124-0.576-0.268-1.146-0.375-1.724l-0.29-1.737c-0.188-1.158-0.376-2.313-0.563-3.464
		c-0.119-1.201-0.304-2.393-0.359-3.589c-0.075-1.195-0.157-2.385-0.146-3.577l-0.009-1.782l0.075-1.78
		c0.239-4.733,1.012-9.445,2.669-13.982c1.645-4.508,4.155-8.924,7.876-12.386c3.747-3.444,8.48-5.661,13.365-6.349
		c4.912-0.708,9.761,0.206,13.857,1.925c4.126,1.724,7.627,4.181,10.632,6.913c3.004,2.745,5.527,5.792,7.632,9.008
		c2.109,3.19,3.77,6.718,4.985,9.96c2.497,6.592,3.958,12.896,5.464,18.668c0.742,2.885,1.485,5.645,2.271,8.273
		c0.805,2.614,1.667,5.092,2.613,7.421c0.513,1.137,0.961,2.295,1.522,3.352c0.269,0.537,0.536,1.068,0.799,1.595
		c0.285,0.486,0.533,0.987,0.839,1.453c1.165,1.895,2.495,3.626,3.927,5.152c2.859,3.063,6.016,5.385,9.074,6.992
		c3.064,1.615,6.033,2.499,8.649,2.854c1.31,0.164,2.53,0.189,3.649,0.147c1.11-0.087,2.132-0.196,3.021-0.418
		C423.206,533.085,424.963,531.854,425.247,532.252z"/>
	<path style="fill:#FFFFFF;" d="M669.674,767.563c-0.678-0.491,0.417-3.291,2.844-7.944c1.219-2.293,2.71-5.098,4.441-8.355
		c1.698-3.233,3.574-6.907,5.332-11.018c1.755-4.107,3.406-8.658,4.428-13.602c0.289-1.231,0.474-2.493,0.672-3.769
		c0.125-0.645,0.138-1.261,0.207-1.895c0.04-0.634,0.158-1.258,0.143-1.908c0.128-2.576-0.061-5.239-0.406-7.933
		c-0.448-2.682-1.106-5.382-2.062-8.013c-1.01-2.603-2.288-5.123-3.871-7.422c-3.2-4.573-7.727-8.035-13.104-9.353
		c-2.683-0.623-5.457-0.732-8.223-0.385c-2.773,0.322-5.495,1.275-8.085,2.419c-5.2,2.357-9.708,6.08-13.259,10.169
		c-0.827,1.071-1.733,2.076-2.435,3.192c-0.363,0.549-0.77,1.072-1.099,1.631c-0.325,0.561-0.648,1.118-0.969,1.67
		c-0.339,0.534-0.617,1.141-0.906,1.729c-0.285,0.591-0.589,1.167-0.857,1.757c-0.485,1.205-1.058,2.352-1.461,3.558
		c-1.783,4.747-2.921,9.465-3.717,13.874c-0.794,4.414-1.258,8.521-1.635,12.158c-0.372,3.672-0.692,6.835-0.953,9.421
		c-0.576,5.219-1.228,8.153-2.064,8.183c-0.822,0.029-1.751-2.819-2.614-8.063c-0.435-2.622-0.821-5.855-1.09-9.648
		c-0.259-3.793-0.388-8.159-0.087-13.042c0.306-4.877,1.048-10.289,2.693-16.005c0.366-1.438,0.927-2.859,1.411-4.326
		c0.269-0.725,0.581-1.444,0.877-2.176c0.302-0.73,0.587-1.465,0.978-2.205c0.37-0.74,0.744-1.484,1.12-2.234
		c0.385-0.745,0.85-1.445,1.281-2.176c0.839-1.482,1.894-2.831,2.903-4.248c4.275-5.451,9.825-10.445,16.828-13.856
		c3.503-1.663,7.311-3.06,11.455-3.622c4.121-0.586,8.497-0.468,12.769,0.548c4.275,1.007,8.231,3.003,11.617,5.517
		c3.375,2.535,6.214,5.587,8.366,8.888c2.164,3.298,3.775,6.77,4.972,10.256c1.137,3.505,1.832,7.02,2.221,10.469
		c0.285,3.459,0.317,6.845-0.053,10.116c-0.044,0.818-0.229,1.625-0.34,2.427c-0.139,0.794-0.234,1.612-0.428,2.354
		c-0.343,1.515-0.685,3.002-1.134,4.424c-1.676,5.736-4.053,10.683-6.484,14.933c-2.441,4.254-4.962,7.83-7.282,10.849
		c-2.322,3.019-4.456,5.479-6.273,7.42C672.699,766.199,670.341,768.045,669.674,767.563z"/>
	<path style="fill:#FFFFFF;" d="M700.138,192.751c-0.347-0.481-0.139-1.376,0.545-2.616c0.342-0.62,0.803-1.326,1.374-2.111
		c0.286-0.392,0.599-0.804,0.939-1.234c0.322-0.448,0.664-0.926,1.027-1.432c0.728-1.001,1.553-2.079,2.468-3.226
		c0.86-1.189,1.794-2.481,2.798-3.869c1.05-1.326,1.976-2.911,3.056-4.481c1.111-1.547,2.085-3.328,3.179-5.122
		c0.272-0.449,0.548-0.903,0.827-1.362c0.273-0.462,0.508-0.958,0.769-1.441c0.515-0.968,1.041-1.958,1.578-2.967
		c0.573-0.984,1.004-2.077,1.516-3.143c0.489-1.079,1.029-2.153,1.513-3.275c0.453-1.135,0.913-2.29,1.381-3.464
		c0.23-0.586,0.488-1.166,0.704-1.767c0.202-0.607,0.406-1.218,0.611-1.834c0.402-1.233,0.86-2.463,1.248-3.734
		c0.352-1.281,0.709-2.579,1.07-3.893c0.409-1.298,0.632-2.662,0.939-4.017c0.278-1.362,0.643-2.72,0.81-4.13
		c0.218-1.398,0.439-2.811,0.662-4.238c0.132-1.434,0.265-2.882,0.4-4.343c0.415-5.842,0.331-11.896-0.419-18.006
		c-0.852-6.097-2.333-11.967-4.241-17.505c-0.507-1.377-1.009-2.741-1.506-4.093c-0.583-1.321-1.161-2.629-1.733-3.924
		c-0.525-1.32-1.229-2.538-1.848-3.781c-0.646-1.23-1.213-2.49-1.943-3.639c-0.688-1.177-1.368-2.338-2.038-3.485
		c-0.703-1.128-1.462-2.199-2.169-3.286c-0.357-0.542-0.712-1.08-1.064-1.614c-0.364-0.526-0.762-1.019-1.136-1.526
		c-0.755-1.013-1.497-2.01-2.228-2.99c-0.758-0.959-1.556-1.857-2.307-2.773c-0.77-0.897-1.469-1.842-2.276-2.645
		c-0.779-0.837-1.543-1.657-2.29-2.46c-0.377-0.399-0.732-0.818-1.115-1.194c-0.388-0.372-0.771-0.739-1.15-1.102
		c-1.52-1.451-2.921-2.92-4.393-4.128c-1.449-1.238-2.752-2.53-4.109-3.541c-1.328-1.082-2.564-2.089-3.701-3.017
		c-1.18-0.872-2.255-1.701-3.217-2.48c-0.481-0.395-0.935-0.768-1.362-1.119c-0.439-0.328-0.848-0.645-1.225-0.95
		c-0.754-0.61-1.382-1.174-1.872-1.685c-0.98-1.022-1.412-1.833-1.201-2.387c0.211-0.554,1.056-0.825,2.508-0.819
		c0.726,0.003,1.603,0.076,2.627,0.217c0.512,0.071,1.061,0.159,1.645,0.264c0.579,0.117,1.173,0.294,1.812,0.469
		c1.273,0.359,2.682,0.796,4.22,1.309c1.515,0.554,3.105,1.281,4.84,2.042c1.761,0.724,3.484,1.763,5.375,2.796
		c1.915,1.003,3.771,2.306,5.763,3.642c0.496,0.338,0.998,0.679,1.506,1.025c0.502,0.353,0.976,0.751,1.473,1.133
		c0.984,0.781,1.99,1.58,3.017,2.394c1.052,0.795,1.994,1.742,3.009,2.655c0.996,0.932,2.04,1.86,3.043,2.861
		c0.97,1.035,1.956,2.087,2.959,3.157c0.495,0.542,1.014,1.073,1.498,1.64c0.471,0.578,0.945,1.161,1.422,1.748
		c0.945,1.184,1.938,2.363,2.872,3.614c0.894,1.282,1.8,2.581,2.717,3.896c0.951,1.298,1.735,2.725,2.59,4.133
		c0.829,1.423,1.734,2.829,2.455,4.356c0.756,1.511,1.52,3.037,2.291,4.578c0.664,1.595,1.334,3.205,2.01,4.829
		c2.537,6.57,4.472,13.681,5.504,21.148c0.93,7.481,0.895,14.85,0.139,21.852c-0.234,1.744-0.466,3.473-0.696,5.185
		c-0.348,1.688-0.692,3.36-1.032,5.015c-0.303,1.662-0.814,3.254-1.248,4.842c-0.463,1.581-0.853,3.162-1.436,4.661
		c-0.547,1.508-1.087,2.996-1.62,4.465c-0.579,1.449-1.234,2.846-1.842,4.233c-0.31,0.69-0.618,1.376-0.923,2.056
		c-0.321,0.673-0.686,1.319-1.024,1.971c-0.693,1.292-1.374,2.563-2.044,3.813c-0.71,1.226-1.48,2.392-2.202,3.55
		c-0.746,1.145-1.411,2.302-2.223,3.341c-0.782,1.052-1.547,2.083-2.297,3.092c-0.382,0.498-0.737,1.004-1.131,1.475
		c-0.401,0.465-0.798,0.924-1.19,1.378c-1.58,1.804-3.037,3.542-4.628,5.005c-1.561,1.485-2.956,2.934-4.471,4.088
		c-1.48,1.183-2.828,2.296-4.149,3.222c-1.354,0.893-2.603,1.678-3.74,2.354c-0.572,0.333-1.1,0.658-1.629,0.92
		c-0.538,0.252-1.045,0.479-1.521,0.679c-0.953,0.401-1.782,0.697-2.482,0.888C701.372,193.276,700.485,193.232,700.138,192.751z"/>
	<path style="fill:#FFFFFF;" d="M1067.915,629.491c0.977,0.631,1.142,2.505,0.272,5.374c-0.862,2.864-2.891,6.649-6.286,10.697
		c-1.689,2.03-3.759,4.06-6.137,6.076c-2.412,1.958-5.127,3.919-8.182,5.64c-6.083,3.489-13.428,6.192-21.413,7.534
		c-7.994,1.287-15.817,1.079-22.698-0.276c-3.446-0.651-6.646-1.639-9.558-2.721c-2.899-1.148-5.51-2.407-7.76-3.789
		c-4.513-2.748-7.647-5.683-9.382-8.12c-1.743-2.439-2.187-4.267-1.464-5.178c1.559-1.937,7.116,0.257,15.524,2.089
		c2.1,0.477,4.406,0.879,6.854,1.263c2.469,0.32,5.079,0.64,7.844,0.763c5.518,0.296,11.584,0.02,17.851-0.98
		c6.257-1.061,12.092-2.742,17.224-4.791c2.58-1.003,4.95-2.143,7.186-3.236c2.196-1.148,4.251-2.268,6.088-3.392
		C1061.256,632.014,1065.818,628.156,1067.915,629.491z"/>
	<path style="fill:#FFFFFF;" d="M1055.016,424.888c-0.766-2.308,1.501-5.166,3.737-8.994c2.309-3.772,4.702-8.816,5.3-14.116
		c0.587-5.301-0.633-10.749-2.053-14.938c-1.336-4.227-2.916-7.515-1.66-9.597c0.619-0.99,1.959-1.513,3.95-1.295
		c1.984,0.21,4.561,1.257,7.23,3.35c2.667,2.08,5.332,5.273,7.233,9.462c1.904,4.165,2.96,9.389,2.371,14.925
		c-0.647,5.53-2.831,10.392-5.606,14.034c-2.779,3.666-6.083,6.192-9.143,7.632c-3.065,1.452-5.81,1.904-7.791,1.671
		C1056.593,426.796,1055.402,425.99,1055.016,424.888z"/>
	<path style="fill:#FFFFFF;" d="M57.875,407.376c0.142,1.163-0.517,2.4-2.063,3.501c-1.538,1.103-3.975,1.985-7.117,2.254
		c-3.133,0.275-6.953-0.156-10.935-1.646c-3.972-1.476-8.085-4.086-11.505-7.845c-3.388-3.788-5.561-8.147-6.622-12.25
		c-1.073-4.114-1.11-7.958-0.514-11.046c0.59-3.097,1.718-5.431,2.973-6.847c1.254-1.424,2.552-1.953,3.695-1.692
		c2.355,0.572,3.628,3.864,5.452,7.751c1.766,3.923,4.217,8.63,7.77,12.58c3.564,3.94,7.995,6.861,11.715,9.021
		C54.404,403.371,57.548,404.975,57.875,407.376z"/>
	<path style="fill:#FFFFFF;" d="M893.361,853.389c-1.721-1.705-1.192-5.113-0.942-9.212c0.327-4.098,0.371-9.136-0.896-13.889
		c-1.278-4.75-3.834-9.091-6.166-12.477c-2.266-3.426-4.428-6.113-3.789-8.45c0.326-1.125,1.401-2.01,3.237-2.412
		c1.828-0.407,4.393-0.243,7.342,0.792c2.943,1.025,6.212,3.001,9.148,6.038c2.933,3.018,5.482,7.163,6.819,12.066
		c1.292,4.915,1.156,9.779,0.125,13.859c-1.026,4.098-2.869,7.443-4.906,9.802c-2.037,2.37-4.177,3.794-5.964,4.355
		C895.579,854.43,894.206,854.2,893.361,853.389z"/>
	<path style="fill:#FFFFFF;" d="M107.47,664.614c0.197,1.152-0.713,2.475-2.752,3.714c-2.031,1.242-5.214,2.295-9.309,2.694
		c-4.087,0.407-9.078,0.042-14.386-1.539c-5.298-1.566-10.885-4.437-15.845-8.703c-4.923-4.309-8.553-9.435-10.85-14.46
		c-2.313-5.032-3.378-9.921-3.551-14.025c-0.182-4.111,0.412-7.41,1.355-9.596c0.939-2.193,2.121-3.281,3.289-3.248
		c2.448,0.091,4.2,4.383,7.159,9.979c2.896,5.616,7.313,12.685,13.856,18.377c6.557,5.674,14.178,9.051,20.147,11.127
		C102.539,661.073,107.035,662.203,107.47,664.614z"/>
	<path style="fill:#FFFFFF;" d="M615.181,1054.403c-1.605-0.027-2.996-12.897-2.979-33.744c0.024-2.605,0.048-5.334,0.074-8.178
		c0.042-2.844,0.163-5.799,0.265-8.861c0.179-6.126,0.586-12.659,1.021-19.537c0.979-13.744,2.47-28.832,4.614-44.595
		c2.186-15.757,4.819-30.688,7.582-44.187c1.435-6.74,2.806-13.141,4.285-19.088c0.728-2.976,1.408-5.854,2.134-8.604
		c0.742-2.745,1.454-5.38,2.134-7.895c5.604-20.08,10.415-32.098,11.967-31.691c3.372,0.903-7.751,50.823-16.191,113.102
		C621.421,1003.372,618.672,1054.443,615.181,1054.403z"/>
	<ellipse style="fill:#FFFFFF;" cx="611.415" cy="1142.163" rx="6.012" ry="15.749"/>
	<path style="fill:#FFFFFF;" d="M546.507,974.763c-0.827-0.069-1.429-3.139-1.812-8.579c-0.096-1.36-0.178-2.869-0.246-4.516
		c-0.112-1.647-0.233-3.436-0.364-5.359c-0.265-3.839-0.352-8.197-0.798-13.003c-0.169-2.4-0.347-4.915-0.532-7.535
		c-0.183-2.617-0.529-5.331-0.783-8.143c-0.134-1.405-0.271-2.834-0.41-4.286c-0.114-1.453-0.299-2.923-0.505-4.413
		c-0.378-2.98-0.768-6.048-1.167-9.193c-1.817-12.548-4.257-26.258-7.632-40.475c-3.479-14.193-7.558-27.507-11.662-39.503
		c-1.079-2.982-2.131-5.889-3.153-8.714c-0.496-1.42-1.001-2.813-1.562-4.158c-0.538-1.356-1.068-2.69-1.589-4.002
		c-1.056-2.618-1.986-5.191-3.016-7.604c-1.03-2.416-2.019-4.736-2.962-6.949c-1.794-4.481-3.703-8.399-5.218-11.937
		c-0.76-1.771-1.468-3.419-2.12-4.935c-0.691-1.497-1.305-2.878-1.84-4.132c-2.14-5.017-3.003-8.024-2.299-8.462
		c0.705-0.439,2.916,1.738,6.336,6.095c0.855,1.089,1.786,2.315,2.787,3.669c0.975,1.369,1.959,2.902,3.035,4.541
		c2.113,3.3,4.599,7.032,6.935,11.382c1.194,2.164,2.446,4.432,3.749,6.795c1.284,2.376,2.456,4.925,3.744,7.534
		c0.632,1.311,1.275,2.644,1.928,3.998c0.671,1.348,1.284,2.746,1.883,4.175c1.21,2.856,2.456,5.795,3.734,8.809
		c4.821,12.173,9.377,25.878,12.979,40.578c3.497,14.725,5.69,29,6.95,42.032c0.237,3.265,0.468,6.449,0.693,9.542
		c0.118,1.545,0.211,3.069,0.228,4.575c0.036,1.503,0.072,2.983,0.107,4.438c0.043,2.909,0.162,5.713,0.103,8.413
		c-0.083,2.697-0.163,5.286-0.239,7.757c-0.096,4.936-0.606,9.391-0.983,13.292c-0.21,1.95-0.387,3.763-0.63,5.426
		c-0.274,1.662-0.543,3.177-0.807,4.536C548.31,971.887,547.334,974.832,546.507,974.763z"/>
	
		<ellipse transform="matrix(0.9996 -0.0278 0.0278 0.9996 -29.8567 15.6658)" style="fill:#FFFFFF;" cx="549.168" cy="1082.916" rx="6.012" ry="27.009"/>
	<g>
		<circle style="fill:#FFFFFF;" cx="478.9" cy="418.35" r="23.483"/>
	</g>
	<g>
		<circle style="fill:#FFFFFF;" cx="423.736" cy="688.685" r="23.483"/>
	</g>
	<g>
		<circle style="fill:#FFFFFF;" cx="530.85" cy="339.468" r="16.777"/>
	</g>
	<g>
		<circle style="fill:#FFFFFF;" cx="830.404" cy="619.451" r="16.777"/>
	</g>
	<g>
		<circle style="fill:#FFFFFF;" cx="675.842" cy="127.086" r="16.777"/>
	</g>
	<g>
		<circle style="fill:#FFFFFF;" cx="272.432" cy="371.804" r="16.777"/>
	</g>
	<g>
		<circle style="fill:#FFFFFF;" cx="339.96" cy="441.833" r="16.777"/>
	</g>
</g>
</svg>